{
	"homepage": "https://mods.curse.com/mc-mods/minecraft/251732-overlord",
	"promos": {
		"1.12.2-latest": "2.4.10",
		"1.12.2-recommended": "2.4.10",
		"1.12.1-latest": "2.4.10",
		"1.12.1-recommended": "2.4.10",
		"1.12-latest": "2.4.10",
		"1.12-recommended": "2.4.10",
		"1.11.2-latest": "2.4.2",
		"1.11.2-recommended": "2.4.2",
		"1.11-latest": "2.3.0",
		"1.11-recommended": "2.3.0",
		"1.10.2-latest": "2.3.7",
		"1.10.2-recommended": "2.3.7",
		"1.9.4-latest": "2.1.1",
		"1.9.4-recommended": "2.1.1"
	},
	"1.12.2": {
		"2.4.10": "Added a config option to disable friendly fire.",
		"2.4.9": "Greatly improved Custom XP Orb performance\nUpdated Chinese language localization",
		"2.4.8": "Performance enhancements",
		"2.4.7": "Fixed numerous issues caused by a poorly executed mapping change."
	},
	"1.12.1": {
		"2.4.10": "Added a config option to disable friendly fire.",
		"2.4.9": "Greatly improved Custom XP Orb performance\nUpdated Chinese language localization",
		"2.4.8": "Performance enhancements",
		"2.4.7": "Fixed numerous issues caused by a poorly executed mapping change.",
		"2.4.6": "Fixed \"player not found\" command messages\nArmy Members now show up in JourneyMap\nAdded FluidRegistry support. This means if other containers hold milk than the vanilla ones, this will probably support them.\nRecipe Book unlock triggers now use OreDictionary. Requires Forge 1.12.1-14.22.0.2452 or newer.\nImproved targeting AI.",
		"2.4.5": "Improved Army AI"
	},
	"1.12": {
		"2.4.10": "Added a config option to disable friendly fire.",
		"2.4.9": "Greatly improved Custom XP Orb performance\nUpdated Chinese language localization",
		"2.4.8": "Performance enhancements",
		"2.4.7": "Fixed numerous issues caused by a poorly executed mapping change.",
		"2.4.5": "Improved Army AI",
		"2.4.4": "Fixed dedicated server-side translations\nStop server log spam when The One Probe looks at an army skeleton.",
		"2.4.3": "Updated the splash system in preparation for Mechanical Soldiers and Fire's Random Things splashes"
	},
	"1.11.2": {
		"2.4.2": "Bug fixes",
		"2.4.1": "Added NEI integration\nIC2's Overclocker is now an Augment",
		"2.4.0": "Internal improvements\nAdded the Mummy Skinsuit\nAdded the Rallying Horn\nChanged the Iron augmented Skeleton texture\nBug fixes\nOptimizations",
		"2.3.7": "Added a Milk Registry, so other mods can add their Milk to Skeleton Makers\nFixed Baby Skeleton Makers not working",
		"2.3.6": "Hotfix disconnect error",
		"2.3.5": "Fixed crashing/disconnection from servers due to squads\nAdded splash text",
		"2.3.4": "Addon makers: You can now choose whether or not your army members are targeted by mobs, and under what conditions.\nArmy Members wearing Skinsuits are no longer targeted if they have a mob skull on their head\nArmy Members now avoid creepers if they can be attacked by them.\nBug fixes",
		"2.3.3": "The Mending enchantment should now work properly on Skeleton Warriors\nSkeleton Warrior kills now drop XP\nMobs now think Skeletons in Skinsuits look like players.",
		"2.3.2": "Fixed crashing if number of squads is not 0 or 5.\nBottles now play the sound when milking cows.\nFixed the recipe for the crown showing incorrectly in the guide book.\nFixed keychains and the skeletons they are used on vanishing in Survival Mode.",
		"2.3.1": "Fixed GUIs using Squads crashing clients of LAN games\nAdded a config option to control the max distance Skeleton Warriors can shoot bows\nConverted Skeletons now shoot bows as far and fast as regular Skeletons\nSpawn Eggs for Overlord entities are now called Spawn Eggs",
		"2.3.0": "Added the Sugar augment\nMilk Bottles now dispense from dispensers\nAdded the keychain\nAdded the Overlord's Crown\nUpdated the Overlord's Seal texture\nSkeletons now keep their armor when you convert them\nUpdated the guide book\nShift+Clicking Augments into Converted Skeletons and Skeleton Warriors inventories now works correctly\nFixed a crash related to Converted Skeletons using bows\nUpdated the Skeleton Maker and Baby Skeleton Maker models(Thanks to Possible Triangle @pssbletrngle on Twitter) and recipes\nFixed army members attempting to fire bows when no arrows are present",
		"2.2.3": "Seals and Stamps are now always claimed when crafted.\nThe guide now explains Alliances, Enemies, and Squads.\nCommands should no longer require op.",
		"2.2.2": "Fixed multithreading.\nSeals and Stamps are now claimed when crafted.",
		"2.2.1": "Should fix a crash when connecting to servers",
		"2.2.0": "Added a Guide Book, just install Guide API.",
		"2.1.3": "Fixed crash when opening Army Member GUIs in Multiplayer",
		"2.1.2": "Fixed issues related to loading and saving squads, alliances, and enemies",
		"2.1.1": "Switched the Overlord's Seal recipe to use Iron Nuggets"
	},
	"1.11": {
		"2.3.0": "Added the Sugar augment\nAdded the Keychain\nAdded the Overlord's Crown\nAdded a Guide Book, using Guide-API.\nMilk Bottles now dispense from dispensers\nUpdated the Overlord's Seal texture\nSkeletons now keep their armor when you convert them\nShift+Clicking Augments into Converted Skeletons and Skeleton Warriors inventories now works correctly\nFixed a crash related to Converted Skeletons using bows\nUpdated the Skeleton Maker and Baby Skeleton Maker models(Thanks to Possible Triangle @pssbletrngle on Twitter) and recipes\nFixed army members attempting to fire bows when no arrows are present\nSeals and Stamps are now claimed when crafted.\nCommands should no longer require op.\nFixed multithreading.\nFixed a crash when connecting to servers\nFixed crash when opening Army Member GUIs in Multiplayer\nUpdated mappings\nFixed issues related to loading/saving squads, alliances, and enemies",
		"2.1.1": "Cake can now be crafted with Milk Bottles",
		"2.1.0": "Added the Overlord's Stamp\nImproved army member death messages\nAdded the ability to convert Skeletons into members of your army",
		"2.0.3": "Equipped skinsuits now drop when your skeletons die\nObsidian augment now protects from lava\nMilk Bottles can now be put in to Skeleton Makers using their GUIs\nSkeleton Makers now drop their contents when broken\nShift Clicking a stack of augment items no longer puts the whole stack in the augment slot",
		"2.0.2": "Added break sound to the Milk Bottle",
		"2.0.1": "Added the Milk Bottle\nFixed some itemstack bugs\nFixed Baby Skeleton held item rendering\nFixed Squad Editor on servers\nFixed shift+clicking Skinsuit into Skeleton Makers"
	},
	"1.10.2": {
		"2.3.7": "Added a Milk Registry, so other mods can add their Milk to Skeleton Makers\nFixed Baby Skeleton Makers not working",
		"2.3.6": "Hotfix disconnect error",
		"2.3.5": "Fixed crashing/disconnection from servers due to squads\nAdded splash text",
		"2.3.4": "Addon makers: You can now choose whether or not your army members are targeted by mobs, and under what conditions.\nArmy Members wearing Skinsuits are no longer targeted if they have a mob skull on their head\nArmy Members now avoid creepers if they can be attacked by them.\nBug fixes",
		"2.3.3": "The Mending enchantment should now work properly on Skeleton Warriors\nSkeleton Warrior kills now drop XP\nMobs now think Skeletons in Skinsuits look like players.\nSkeleton Warriors drink milk for XP again\nKeychains now spawn the correct army member type",
		"2.3.2": "Fixed crashing if number of squads is not 0 or 5.\nBottles now play the sound when milking cows.\nFixed the recipe for the crown showing incorrectly in the guide book.\nFixed keychains and the skeletons they are used on vanishing in Survival Mode.",
		"2.3.1": "Fixed GUIs using Squads crashing clients of LAN games\nAdded a config option to control the max distance Skeleton Warriors can shoot bows\nConverted Skeletons now shoot bows as far and fast as regular Skeletons\nSpawn Eggs for Overlord entities are now called Spawn Eggs",
		"2.3.0": "Added the Sugar augment\nAdded the Keychain\nAdded the Overlord's Crown\nAdded a Guide Book, using Guide-API.\nMilk Bottles now dispense from dispensers\nUpdated the Overlord's Seal texture\nSkeletons now keep their armor when you convert them\nShift+Clicking Augments into Converted Skeletons and Skeleton Warriors inventories now works correctly\nFixed a crash related to Converted Skeletons using bows\nUpdated the Skeleton Maker and Baby Skeleton Maker models(Thanks to Possible Triangle @pssbletrngle on Twitter) and recipes\nFixed army members attempting to fire bows when no arrows are present\nSeals and Stamps are now claimed when crafted.\nCommands should no longer require op.\nFixed multithreading.\nFixed a crash when connecting to servers\nFixed crash when opening Army Member GUIs in Multiplayer\nUpdated mappings\nFixed issues related to loading/saving squads, alliances, and enemies",
		"2.1.1": "Equipped skinsuits now drop when your skeletons die\nObsidian augment now protects from lava\nMilk Bottles can now be put in to Skeleton Makers using their GUIs\nSkeleton Makers now drop their contents when broken\nShift Clicking a stack of augment items no longer puts the whole stack in the augment slot\nAdded the Overlord's Stamp\nImproved army member death messages\nAdded the ability to convert Skeletons into members of your army\nCake can now be crafted with Milk Bottles",
		"2.0.2": "Added break sound to the Milk Bottle\nFixed Baby Skeleton handheld item rendering",
		"2.0.1": "Added the Milk Bottle\nFixed some itemstack bugs\nFixed Baby Skeleton held item rendering\nFixed Squad Editor on servers\nFixed shift+clicking Skinsuit into Skeleton Makers\nFixed potential dupe bug\nGreatly improved the Skeleton Placers\nGreatly improved the efficiency of the update of Milk in the Skeleton Warrior Maker",
		"1.3.6": "Added Dutch Translation (Thanks Dracindo)",
		"1.3.5": "Fixed all known skinsuit rendering bugs\nItems that have special effects when hitting entities should now work correctly\nAdded German translation (Thanks The_BrainStone)",
		"1.3.4": "Army Members in Defensive or Passive modes will now close doors behind them.\nFixed the Milk Achievements",
		"1.3.3": "Added BrainStone Mod integration",
		"1.3.2": "Fixed massive lag when a skinsuit of a nonexistent player is applied",
		"1.3.1": "1 new Achievement\nBaby Skeleton GUI now works correctly",
		"1.3.0": "Baby Skeletons!\nBaby Skeleton Maker\nBaby Skeleton Placer(For copy-pasting them in creative mode)\nSupport for adding more troop types(Modders, if you want to make addons, go for it! Feel free to ask questions.)\nAugment System! Buff up your Skeleton Warriors' defenses, attacks, or give them health regen!\n3 new Achievements!\nSkeleton Warriors now cost 32 bones by default\nSkeleton Warriors now collect XP orbs and can level up from them\nSkeleton Warriors' bone cost is now configurable\nDefensive and Aggressive Army Members will now attack an entity if it attacks you\nAggressive Mode army members will attack entities that you attack(much like wolves)\nSkeleton Warriors heal on level up\nThe third bone slot was converted in to an Augment slot\n'Sally' achievement is now obtained by applying a skinsuit to one of your skeletons\nChanged the Skinsuit item texture\nSkeleton Warrior Placer now places the Skeleton Warrior in the center of the tile, not on the corner.\nArmy Members no longer teleport back when falling\nTarget instances of IMob instead of EntityMob. Allows targeting mobs from Lycanite's Mobs, etc.\nMipmap is no longer restricted to 1\nFixed crash",
		"1.2.1": "Performance Improvements",
		"1.2.0": "Added a skinsuit slot to the Skeleton Maker\nAdded an Enemy system, so you can make enemies, similar to how you can make allies\nSkeleton Warriors are no longer considered mobs\nYou can now see a player's army coming almost as soon as you can see the player\nSkeleton Warriors drop empty buckets to make room for milk buckets\nAdded a squad system\nSkeleton Warriors will now go after attack targets when set to Follower Mode, rather than looking back and forth between the player and the target\nSkeleton Warriors from early Overlord versions can no longer despawn\nItem Pickup sound is no longer spammed when Skeleton Warriors stand over an item with a full inventory",
		"1.1.6": "The bucket emptying sound is now played when putting milk in the Skeleton Maker\nAI Update noise is slightly louder\nChanging to Passive while the Skeleton Warrior is in the middle of a melee attack no longer causes the game to crash\nSkeleton Warriors stop moving when they update AI\nSkeleton Warriors will not melee attack with a Bow and Arrow(s)\nOnly aggressive Skeleton Warriors will show as hostile on Xaero's Minimap(once he updates)\nSkeleton Warriors now consume arrows when using ranged attacks\nWeapons now take damage like they should\nSkeleton Warriors immediately stop attacking if set to Passive",
		"1.1.5": "Fixed a memory leak\nYou can now sleep near Skeleton Warriors",
		"1.1.4": "Skeleton Maker GUI now shows ghost images of the Overlord's Seal and Milk Bucket if they aren't there\nSkeleton Maker GUI warns you if the spawned Skeleton Warrior might suffocate\nMinor ghostly skinsuit tweaks\nSkeleton Warriors now have no chance to suffocate in a wall next to the Skeleton Maker\nThe mod now checks Milk Bucket stack size. This fixes compatibility with mods that increase Milk Bucket's max stack size\nMilk Buckets are no longer consumed when in Creative Mode healing Skeletons and Skeleton Warriors\nSkeleton Warriors will no longer teleport in to blocks",
		"1.1.3": "Skeleton Warriors now swap their bows for swords if they are out of arrows\nSkeleton Warriors should now be able to use any bow extending ItemBow\nAdded the Skeleton Warrior Placer for Creative Mode users\nSkeleton Warriors now play a sound when receiving AI updates\nPerformance improvements\nSkeleton Warriors now go after Slimes\nThe health numbers in the Skeleton GUI are now rounded\nSkeleton Warriors with Entity ID 1 no longer open the Overlord's Seal GUI\nYour Skeleton Warriors will no longer get in to fights over stray arrows\nSkeleton Warriors can no longer pick their equipment back up and destroy it as they die\nSkeleton Warriors now play the item pickup sound",
		"1.1.2": "Fixed skeleton warriors equipping anything they pick up\nFixed a bug applying skinsuits",
		"1.1.1": "Skeleton Makers now work with Hoppers\nFixed 'Stationed' Skeleton Warriors going after enemies",
		"1.1.0": "Added Skinsuits\nSkeleton Warriors no longer hunt down creepers unless enabled in the config\nMultiple AI Bug Fixes",
		"1.0.3": "Multiple bug fixes with Skeleton Warrior interaction",
		"1.0.2": "Fixed a minor visual bug with an easter egg",
		"1.0.1": "Fixed Skeleton Maker having Missing Texture particles",
		"1.0.0": "Initial Release"
	},
	"1.9.4": {
		"2.1.1": "Equipped skinsuits now drop when your skeletons die\nObsidian augment now protects from lava\nMilk Bottles can now be put in to Skeleton Makers using their GUIs\nSkeleton Makers now drop their contents when broken\nShift Clicking a stack of augment items no longer puts the whole stack in the augment slot\nAdded the Overlord's Stamp\nImproved army member death messages\nAdded the ability to convert Skeletons into members of your army\nCake can now be crafted with Milk Bottles",
		"2.0.2": "Added break sound to the Milk Bottle\nFixed Baby Skeleton handheld item rendering"
	}
}