{
	"homepage": "https://mods.curse.com/mc-mods/minecraft/240916-rabbits-breed-like-rabbits",
	"promos": {
		"1.11.2-latest": "7.0.0",
		"1.11.2-recommended": "7.0.0"
	},
	"1.11.2": {
		"7.0.0": "Updated to 1.11.2"
	}
}