{
	"homepage": "https://mods.curse.com/mc-mods/minecraft/269359-tick-dynamic",
	"promos": {
		"1.12-latest": "1.0.0",
		"1.12-recommended": "1.0.0",
		"1.11.2-latest": "1.0.0",
		"1.11.2-recommended": "1.0.0",
		"1.10.2-latest": "1.0.0",
		"1.10.2-recommended": "1.0.0"
	},
	"1.11.2": {
		"0.5.3": "Fixed a crash\nFixed TickDynamic not loading in worlds outside the dev environment",
		"0.5.2": "More testing was done to ensure that this build works correctly. Fixed a crash, and a few bugs.",
		"0.5.1": "Minor fixes\nCrash fix",
		"0.5.0": "Updated to 1.11.2"
	}
}